\babel@toc {ngerman}{}
\contentsline {section}{\numberline {1}Einleitung}{1}{section.1}% 
\contentsline {section}{\numberline {2}Die Entstehung der App ``Buzzword Bingo''}{1}{section.2}% 
\contentsline {section}{\numberline {3}Momentaner technischer Stand und Ausblick}{3}{section.3}% 
\contentsline {section}{\numberline {4}Bedienungsanleitung}{4}{section.4}% 
\contentsline {section}{\numberline {5}Benutzte Quellen für die Programmierung}{4}{section.5}% 
