\relax 
\providecommand\hyper@newdestlabel[2]{}
\providecommand\HyperFirstAtBeginDocument{\AtBeginDocument}
\HyperFirstAtBeginDocument{\ifx\hyper@anchor\@undefined
\global\let\oldcontentsline\contentsline
\gdef\contentsline#1#2#3#4{\oldcontentsline{#1}{#2}{#3}}
\global\let\oldnewlabel\newlabel
\gdef\newlabel#1#2{\newlabelxx{#1}#2}
\gdef\newlabelxx#1#2#3#4#5#6{\oldnewlabel{#1}{{#2}{#3}}}
\AtEndDocument{\ifx\hyper@anchor\@undefined
\let\contentsline\oldcontentsline
\let\newlabel\oldnewlabel
\fi}
\fi}
\global\let\hyper@last\relax 
\gdef\HyperFirstAtBeginDocument#1{#1}
\providecommand*\HyPL@Entry[1]{}
\catcode `"\active 
\HyPL@Entry{0<</S/D>>}
\babel@aux{ngerman}{}
\HyPL@Entry{1<</S/D>>}
\@writefile{toc}{\contentsline {section}{\numberline {1}Einleitung}{1}{section.1}\protected@file@percent }
\@writefile{toc}{\contentsline {section}{\numberline {2}Die Entstehung der App ``Buzzword Bingo''}{1}{section.2}\protected@file@percent }
\@writefile{lof}{\contentsline {figure}{\numberline {1}{\ignorespaces Diagramm der eingebetteten Datenbank}}{3}{figure.1}\protected@file@percent }
\newlabel{fig:wordlistsdiagram}{{1}{3}{Diagramm der eingebetteten Datenbank}{figure.1}{}}
\@writefile{toc}{\contentsline {section}{\numberline {3}Momentaner technischer Stand und Ausblick}{3}{section.3}\protected@file@percent }
\@writefile{toc}{\contentsline {section}{\numberline {4}Bedienungsanleitung}{4}{section.4}\protected@file@percent }
\@writefile{toc}{\contentsline {section}{\numberline {5}Benutzte Quellen für die Programmierung}{4}{section.5}\protected@file@percent }
\@writefile{lol}{\contentsline {lstlisting}{../used\textunderscore links.txt}{4}{lstlisting.-1}\protected@file@percent }
